---
version: 2
interactions:
    - id: 0
      request:
        proto: HTTP/1.1
        proto_major: 1
        proto_minor: 1
        content_length: 0
        transfer_encoding: []
        trailer: {}
        host: api.hyperping.io
        remote_addr: ""
        request_uri: ""
        body: ""
        form: {}
        headers:
            Accept:
                - application/json
            Authorization:
                - Bearer [MASKED]
            Content-Type:
                - application/json
            User-Agent:
                - terraform-provider-hyperping/dev (go1.24.13; linux/amd64)
        url: https://api.hyperping.io/v2/outages
        method: GET
      response:
        proto: HTTP/2.0
        proto_major: 2
        proto_minor: 0
        transfer_encoding: []
        trailer: {}
        content_length: -1
        uncompressed: true
        body: '{"outages":[{"id":4584863,"uuid":"outage_nqZWRijx1VQEQg","startDate":"2026-02-09T09:21:07.000Z","endDate":null,"durationMs":3085543,"statusCode":500,"description":"Internal Server Error","isResolved":false,"detectedLocation":"singapore","confirmedLocations":"singapore","protocol":"http","acknowledgedAt":null,"acknowledgedBy":null,"monitor":{"uuid":"mon_MdnOEmCL1uSAoV","name":"[v1.0.6-TEST]-DELETE-Method","url":"https://httpstat.us/200","protocol":"http"},"escalationPolicy":null},{"id":4584857,"uuid":"outage_MHUteUbjkT1Rnh","startDate":"2026-02-09T09:18:14.000Z","endDate":null,"durationMs":3258543,"statusCode":500,"description":"Internal Server Error","isResolved":false,"detectedLocation":"virginia","confirmedLocations":"virginia,virginia","protocol":"http","acknowledgedAt":null,"acknowledgedBy":null,"monitor":{"uuid":"mon_DaF7WQVRIpS2p0","name":"[v1.0.6-TEST]-PUT-Method","url":"https://httpstat.us/200","protocol":"http"},"escalationPolicy":null},{"id":4584855,"uuid":"outage_acNKAL1ZLRuwDj","startDate":"2026-02-09T09:16:17.000Z","endDate":null,"durationMs":3375543,"statusCode":500,"description":"Internal Server Error","isResolved":false,"detectedLocation":"london","confirmedLocations":"london,london","protocol":"http","acknowledgedAt":null,"acknowledgedBy":null,"monitor":{"uuid":"mon_2HOnKnkou1tvAp","name":"[v1.0.6-TEST]-Basic-GET","url":"https://httpstat.us/200","protocol":"http"},"escalationPolicy":null},{"id":4584850,"uuid":"outage_JBt3jLkpapF5qR","startDate":"2026-02-09T09:13:26.000Z","endDate":null,"durationMs":3546543,"statusCode":500,"description":"Internal Server Error","isResolved":false,"detectedLocation":"london","confirmedLocations":"london,london","protocol":"http","acknowledgedAt":null,"acknowledgedBy":null,"monitor":{"uuid":"mon_YQxIeHE8iXxmbh","name":"[v1.0.6-TEST]-Min-Freq-10s","url":"https://httpstat.us/200","protocol":"http"},"escalationPolicy":null},{"id":4584768,"uuid":"outage_SMljeiDP65j7Bt","startDate":"2026-02-09T08:26:50.000Z","endDate":null,"durationMs":6342543,"statusCode":500,"description":"Internal Server Error","isResolved":false,"detectedLocation":"london","confirmedLocations":"london,london","protocol":"http","acknowledgedAt":null,"acknowledgedBy":null,"monitor":{"uuid":null,"name":null,"url":null,"protocol":null},"escalationPolicy":null},{"id":4584626,"uuid":"outage_htJESnT8z4NL2t","startDate":"2026-02-09T07:10:51.000Z","endDate":null,"durationMs":10901543,"statusCode":500,"description":"Internal Server Error","isResolved":false,"detectedLocation":"london","confirmedLocations":"frankfurt,frankfurt,frankfurt,london,london,frankfurt","protocol":"http","acknowledgedAt":null,"acknowledgedBy":null,"monitor":{"uuid":"mon_7Ahjpl5sLIUUf5","name":"[v1.0.4-TEST]-API-Monitor","url":"https://httpstat.us/200","protocol":"http"},"escalationPolicy":null},{"id":4584430,"uuid":"outage_IU7GEVYGelQIsw","startDate":"2026-02-09T05:01:04.000Z","endDate":null,"durationMs":18688543,"statusCode":503,"description":"Service Unavailable","isResolved":false,"detectedLocation":"london","confirmedLocations":"london,london","protocol":"http","acknowledgedAt":null,"acknowledgedBy":null,"monitor":{"uuid":"mon_BtEEIKjSnrefo5","name":"[STAGING]-WebApp","url":"https://staging-app.example.com","protocol":"http"},"escalationPolicy":null},{"id":4584423,"uuid":"outage_lUp4ekmZZGjf85","startDate":"2026-02-09T04:58:51.000Z","endDate":null,"durationMs":18821543,"statusCode":503,"description":"Service Unavailable","isResolved":false,"detectedLocation":"london","confirmedLocations":"frankfurt,london,frankfurt,frankfurt,frankfurt,london","protocol":"http","acknowledgedAt":null,"acknowledgedBy":null,"monitor":{"uuid":"mon_HVL4JwlAh2LBH4","name":"[PROD]-Database-Health","url":"https://api.example.com/internal/db-health","protocol":"http"},"escalationPolicy":null},{"id":4584421,"uuid":"outage_PdY35nJ7QtmcwY","startDate":"2026-02-09T04:58:12.000Z","endDate":null,"durationMs":18860543,"statusCode":503,"description":"Service Unavailable","isResolved":false,"detectedLocation":"london","confirmedLocations":"london,london","protocol":"http","acknowledgedAt":null,"acknowledgedBy":null,"monitor":{"uuid":"mon_GcJl8vygAB0O8n","name":"[STAGING]-API-Health","url":"https://staging-api.example.com/health","protocol":"http"},"escalationPolicy":null},{"id":4584420,"uuid":"outage_DkOPHZM3KbXnNg","startDate":"2026-02-09T04:58:08.000Z","endDate":null,"durationMs":18864543,"statusCode":503,"description":"Service Unavailable","isResolved":false,"detectedLocation":"london","confirmedLocations":"virginia,singapore,virginia,london,london,singapore,virginia","protocol":"http","acknowledgedAt":null,"acknowledgedBy":null,"monitor":{"uuid":"mon_a7eoQI0nJ8qZEq","name":"[PROD]-Payment-Gateway","url":"https://api.example.com/payments/health","protocol":"http"},"escalationPolicy":null},{"id":4584419,"uuid":"outage_7z35XfgtJzOElr","startDate":"2026-02-09T04:58:02.000Z","endDate":null,"durationMs":18870543,"statusCode":503,"description":"Service Unavailable","isResolved":false,"detectedLocation":"london","confirmedLocations":"virginia,virginia,singapore,frankfurt,frankfurt,london,frankfurt,singapore,virginia,london","protocol":"http","acknowledgedAt":null,"acknowledgedBy":null,"monitor":{"uuid":"mon_r5OgfTTvl5LdBw","name":"[PROD]-API-Health","url":"https://api.example.com/health","protocol":"http"},"escalationPolicy":null},{"id":4584411,"uuid":"outage_8kL4NviAvSr8UI","startDate":"2026-02-09T04:49:49.000Z","endDate":null,"durationMs":19363543,"statusCode":500,"description":"Internal Server Error","isResolved":false,"detectedLocation":"frankfurt","confirmedLocations":"tokyo,nyc,virginia,bangalore,paris,california,singapore,toronto,frankfurt,nyc","protocol":"http","acknowledgedAt":null,"acknowledgedBy":null,"monitor":{"uuid":"mon_fkvswafYt2nOG6","name":"[TEST]-StatusPage-Monitor","url":"https://httpstat.us/200","protocol":"http"},"escalationPolicy":null},{"id":4584386,"uuid":"outage_MNmwAnwa2v1eb9","startDate":"2026-02-09T04:34:00.000Z","endDate":null,"durationMs":20312543,"statusCode":500,"description":"Internal Server Error","isResolved":false,"detectedLocation":"frankfurt","confirmedLocations":"london,capetown,london,nyc,bangalore,amsterdam,saopaulo,seoul,london,nyc","protocol":"http","acknowledgedAt":null,"acknowledgedBy":null,"monitor":{"uuid":null,"name":null,"url":null,"protocol":null},"escalationPolicy":null},{"id":4584382,"uuid":"outage_Z9F5QEE7qeeJnX","startDate":"2026-02-09T04:31:48.000Z","endDate":null,"durationMs":20444543,"statusCode":500,"description":"Internal Server Error","isResolved":false,"detectedLocation":"frankfurt","confirmedLocations":"nyc,saopaulo,california,paris,singapore,virginia,sanfrancisco,bangalore,amsterdam,california","protocol":"http","acknowledgedAt":null,"acknowledgedBy":null,"monitor":{"uuid":null,"name":null,"url":null,"protocol":null},"escalationPolicy":null},{"id":4584381,"uuid":"outage_RJovC7XmsC6zz0","startDate":"2026-02-09T04:31:36.000Z","endDate":null,"durationMs":20456543,"statusCode":503,"description":"Service Unavailable","isResolved":false,"detectedLocation":"frankfurt","confirmedLocations":"virginia,saopaulo,singapore,sydney,london,virginia,paris,sanfrancisco,sanfrancisco,amsterdam","protocol":"http","acknowledgedAt":null,"acknowledgedBy":null,"monitor":{"uuid":null,"name":null,"url":null,"protocol":null},"escalationPolicy":null},{"id":4584380,"uuid":"outage_tuGTo81qe8RJLY","startDate":"2026-02-09T04:31:33.000Z","endDate":null,"durationMs":20459543,"statusCode":500,"description":"Internal Server Error","isResolved":false,"detectedLocation":"frankfurt","confirmedLocations":"virginia,nyc,capetown,sanfrancisco,sanfrancisco,london,frankfurt,paris,london,bangalore","protocol":"http","acknowledgedAt":null,"acknowledgedBy":null,"monitor":{"uuid":null,"name":null,"url":null,"protocol":null},"escalationPolicy":null},{"id":4584379,"uuid":"outage_kJIKaQn7rfZ6LU","startDate":"2026-02-09T04:31:26.000Z","endDate":null,"durationMs":20466543,"statusCode":503,"description":"Service Unavailable","isResolved":false,"detectedLocation":"frankfurt","confirmedLocations":"sydney,nyc,sanfrancisco,tokyo,paris,london,capetown,toronto,seoul,bahrain","protocol":"http","acknowledgedAt":null,"acknowledgedBy":null,"monitor":{"uuid":null,"name":null,"url":null,"protocol":null},"escalationPolicy":null},{"id":4584377,"uuid":"outage_Xdx0Hb2iJKR7Ul","startDate":"2026-02-09T04:31:18.000Z","endDate":null,"durationMs":20474543,"statusCode":500,"description":"Internal Server Error","isResolved":false,"detectedLocation":"frankfurt","confirmedLocations":"singapore,sydney,sanfrancisco,seoul,bahrain,toronto,bangalore,frankfurt,tokyo,bangalore","protocol":"http","acknowledgedAt":null,"acknowledgedBy":null,"monitor":{"uuid":null,"name":null,"url":null,"protocol":null},"escalationPolicy":null},{"id":4584376,"uuid":"outage_B31EXBWbzAnwEf","startDate":"2026-02-09T04:31:16.000Z","endDate":null,"durationMs":20476543,"statusCode":503,"description":"Service Unavailable","isResolved":false,"detectedLocation":"frankfurt","confirmedLocations":"singapore,capetown,bangalore,sydney,toronto,amsterdam,london,nyc,saopaulo,saopaulo","protocol":"http","acknowledgedAt":null,"acknowledgedBy":null,"monitor":{"uuid":null,"name":null,"url":null,"protocol":null},"escalationPolicy":null},{"id":4584375,"uuid":"outage_NrV1SdA0Js4sYb","startDate":"2026-02-09T04:31:09.000Z","endDate":null,"durationMs":20483543,"statusCode":503,"description":"Service Unavailable","isResolved":false,"detectedLocation":"frankfurt","confirmedLocations":"toronto,california,frankfurt,frankfurt,sanfrancisco,seoul,amsterdam,singapore,sanfrancisco,virginia","protocol":"http","acknowledgedAt":null,"acknowledgedBy":null,"monitor":{"uuid":null,"name":null,"url":null,"protocol":null},"escalationPolicy":null}],"hasNextPage":true,"total":27,"ongoingCount":27,"page":0,"resultsPerPage":20}'
        headers:
            Access-Control-Allow-Credentials:
                - "true"
            Access-Control-Allow-Headers:
                - Origin, Content-Type, Access-Control-Allow-Headers, Authorization, userId, X-Requested-With, Accept, projectUuid
            Access-Control-Allow-Methods:
                - GET,PUT,PATCH,POST,HEAD,DELETE
            Access-Control-Allow-Origin:
                - https://app.hyperping.io
            Alt-Svc:
                - h3=":443"; ma=86400
            Cache-Control:
                - no-cache
            Cf-Cache-Status:
                - DYNAMIC
            Cf-Ray:
                - 9cb296c59a03c233-TLV
            Content-Type:
                - application/json; charset=utf-8
            Date:
                - Mon, 09 Feb 2026 10:12:32 GMT
            Etag:
                - W/"268a-lVh3tjVg6QtypEXgrQVqbSG7EAA"
            Nel:
                - '{"report_to":"cf-nel","success_fraction":0.0,"max_age":604800}'
            Ratelimit:
                - '"800-in-1hr"; r=793; t=3523'
            Ratelimit-Policy:
                - '"800-in-1hr"; q=800; w=3600; pk=:MGMzN2I2ZTVmZGY2:'
            Report-To:
                - '{"group":"cf-nel","max_age":604800,"endpoints":[{"url":"https://a.nel.cloudflare.com/report/v4?s=3KhMGc1%2Ff6P%2FeR%2FNpCtxcihmjvBo3DaHM%2FaBfzCYM8zxRrSMfEz48ZLdHtv75jjBNkqXqsEIoPIvHm1GZhhyc9e3guBlOSJ%2BGAgD9fzRhNw%3D"}]}'
            Server:
                - cloudflare
            Vary:
                - Accept-Encoding
        status: 200 OK
        code: 200
        duration: 438.026077ms
